%YAML 1.1
%TAG !u! tag:unity3d.com,2011:
--- !u!114 &11400000
MonoBehaviour:
  m_ObjectHideFlags: 0
  m_CorrespondingSourceObject: {fileID: 0}
  m_PrefabInstance: {fileID: 0}
  m_PrefabAsset: {fileID: 0}
  m_GameObject: {fileID: 0}
  m_Enabled: 1
  m_EditorHideFlags: 0
  m_Script: {fileID: 11500000, guid: d4ad4b58e58c1904f89f5d9bd6713f1d, type: 3}
  m_Name: Short Sword
  m_EditorClassIdentifier: 
  itemType: 0
  ItemName: Short Sword
  ItemImage: {fileID: 21300000, guid: 7994c3778bab08043bf357069e7ca6f4, type: 3}
  ItemWeight: 10
  ItemValue: 150
  WeaponDamage: 10
  IsMeleWeapon: 1
